﻿<?xml version="1.0" encoding="utf-8"?>
<svg version="1.1" xmlns:xlink="http://www.w3.org/1999/xlink" width="18px" height="18px" xmlns="http://www.w3.org/2000/svg">
  <g transform="matrix(1 0 0 1 -35 -44 )">
    <path d="M 0 9  L 4 5  L 5.409999847412109 6.409999847412109  L 3.8299999237060547 8  L 12 8  L 12 10  L 3.8299999237060547 10  L 5.409999847412109 11.579999923706048  L 4 13  L 0 9  Z M 16 16  L 16 2  L 9 2  L 9 0  C 9 0  16 0  16 0  C 17.10000038146973 0  18 0.9000000953674321  18 2  C 18 2  18 16  18 16  C 18 17.10000038146973  17.10000038146973 18  16 18  C 16 18  9 18  9 18  L 9 16  L 16 16  Z " fill-rule="nonzero" fill="#522b44" stroke="none" transform="matrix(1 0 0 1 35 44 )" />
  </g>
</svg>