﻿<?xml version="1.0" encoding="utf-8"?>
<svg version="1.1" xmlns:xlink="http://www.w3.org/1999/xlink" width="16px" height="20px" xmlns="http://www.w3.org/2000/svg">
  <g transform="matrix(1 0 0 1 -80 -42 )">
    <path d="M 16 12  C 16 7.579999923706055  12.420000076293949 4  8 4  C 8 4  8 0  8 0  L 3 5  L 8 10  C 8 10  8 6  8 6  C 11.30999946594238 6  14 8.690000534057617  14 12  C 14 15.30999946594238  11.30999946594238 18  8 18  C 4.690000534057617 18  2 15.30999946594238  2 12  C 2 12  0 12  0 12  C 0 16.42000007629395  3.5799999237060547 20  8 20  C 12.420000076293949 20  16 16.42000007629395  16 12  Z " fill-rule="nonzero" fill="#522b44" stroke="none" transform="matrix(1 0 0 1 80 42 )" />
  </g>
</svg>